Residual Model
…
mahalanobis_data = mahalanobis_data %>% 
  mutate(d = map_dbl(data, ~mahalanobis_dist(.x)))

mahalanobis_data = mahalanobis_data %>% 
  mutate(p_value = pchisq(d, df, lower.tail = FALSE))

mahalanobis_data_p = mahalanobis_data %>% 
  arrange(p_value)

mahalanobis_data_p %>% filter(p_value <=.05)

## # A tibble: 129 x 5
## # Groups:   id [129]
##       id data                df     d      p_value
##    <int> <list>           <dbl> <dbl>        <dbl>
##  1   178 <tibble [5  1]>     5  43.3 0.0000000324
##  2   692 <tibble [5  1]>     5  38.0 0.000000376 
##  3  1118 <tibble [5  1]>     5  34.5 0.00000191  
##  4  1193 <tibble [4  1]>     4  30.3 0.00000417  
##  5  1100 <tibble [3  1]>     3  24.6 0.0000190   
##  6  1207 <tibble [5  1]>     5  29.3 0.0000198   
##  7   362 <tibble [5  1]>     5  28.7 0.0000271   
##  8  1110 <tibble [6  1]>     6  30.5 0.0000315   
##  9   877 <tibble [6  1]>     6  30.3 0.0000347   
## 10   479 <tibble [6  1]>     6  30.1 0.0000374   
## #  with 119 more rows
…
