Group Project Stats 112
…
#outliers values
tibble(outliers = boxplot.stats(aids$log_cd4)$out )

## # A tibble: 199 x 1
##    outliers
##       <dbl>
##  1     0   
##  2     0   
##  3     0   
##  4     0   
##  5     0   
##  6     5.68
##  7     5.62
##  8     5.78
##  9     5.65
## 10     0   
## #  with 189 more rows
…
